Time	OPC	MHPC	LHPC	HESPC	FAPC
0.05	0	0	0	0	0
0.06	0	0	0	0	0
0.07	0	0	0	0	0
0.08	0	0	0	0	0
0.09	0	0	0	0	0
0.1	0	0	0	0	0
0.12	0	0	0	0	0.61
0.13	0	0	0	0.03	1.38
0.15	0	0	0	0.07	2.25
0.18	0.37	0	0	0.11	3.23
0.2	2.18	0	0	0.16	4.33
0.23	4.19	0	0	0.22	5.56
0.27	6.41	0	0	0.28	6.92
0.31	8.84	0	0	0.36	8.43
0.35	11.49	0.11	4.42	0.44	10.09
0.41	14.36	0.51	6.59	0.54	11.91
0.47	17.43	0.96	8.37	0.65	13.89
0.54	20.68	1.46	9.98	0.78	16.02
0.62	24.09	02.04	11.48	0.93	18.28
0.71	27.6	2.7	12.93	1.1	20.67
0.82	31.17	3.44	14.34	1.29	23.15
0.94	34.72	4.27	15.72	1.51	25.69
01.08	38.19	5.21	17.1	1.77	28.25
1.24	41.49	6.27	18.46	02.06	30.78
1.43	44.55	7.44	19.81	2.39	33.21
1.65	47.28	8.75	21.15	2.78	35.5
1.89	49.64	10.19	22.48	3.21	37.59
2.18	51.59	11.78	23.79	3.7	39.42
2.5	53.12	13.51	25.09	4.27	40.98
2.88	54.26	15.39	26.37	4.91	42.23
3.31	55.06	17.4	27.62	5.63	43.19
3.81	55.57	19.55	28.84	6.46	43.89
4.38	55.88	21.8	30.02	7.38	44.35
05.03	56.04	24.13	31.15	8.43	44.64
5.79	56.12	26.51	32.23	9.6	44.81
6.66	56.15	28.89	33.26	10.91	44.89
7.66	56.16	31.23	34.22	12.38	44.93
8.81	56.17	33.47	35.11	14	44.95
10.13	56.17	35.56	35.93	15.78	44.95
11.65	56.17	37.45	36.67	17.74	44.95
13.39	56.17	39.1	37.33	19.87	44.95
15.4	56.17	40.48	37.92	22.16	44.95
17.71	56.17	41.57	38.43	24.61	44.95
20.37	56.17	42.4	38.87	27.2	44.95
23.42	56.17	42.99	39.24	29.91	44.95
26.94	56.17	43.38	39.55	32.68	44.95
30.98	56.17	43.62	39.79	35.49	44.95
35.63	56.17	43.75	39.99	38.27	44.95
40.97	56.17	43.81	40.14	40.97	44.95
47.12	56.17	43.84	40.25	43.53	44.95
54.18	56.17	43.85	40.33	45.87	44.95
62.31	56.17	43.86	40.39	47.95	44.95
71.66	56.17	43.86	40.43	49.72	44.95
82.41	56.17	43.86	40.46	51.17	44.95
94.77	56.17	43.86	40.47	52.3	44.95
108.98	56.17	43.86	40.49	53.12	44.95